{
    "/js/app.js": "/js/app.js?id=4f5c341f3f0e511faa3e",
    "/css/app.css": "/css/app.css?id=9e41263d9900b102357a",
    "/js/app.js.map": "/js/app.js.map?id=39a3385b469527692fd8",
    "/css/app.css.map": "/css/app.css.map?id=d1dbba40e3a860c875d7"
}
